  ____  _               _____   ____   _____
 |  _ \| |             |  __ \ / __ \ / ____|
 | |_) | | ___   __ _  | |__) | |  | | |
 |  _ <| |/ _ \ / _` | |  ___/| |  | | |
 | |_) | | (_) | (_| | | |    | |__| | |____
 |____/|_|\___/ \__, | |_|     \____/ \_____|
                 __/ |
                |___/
